commit 9c0e58708ae6106ca848a99ac921ad7e228ad9ac
Author: Linuxfor223 <lkoppejan@bluewin.ch>
Date:   Fri Sep 17 07:30:58 2021 -0700

    final changes

commit cca69787ce93f502d7c7188fd85447bc54d991df
Author: Linuxfor223 <lkoppejan@bluewin.ch>
Date:   Fri Sep 17 07:16:39 2021 -0700

    Commented an Explained Code

commit 842fcd61b94eb9ad00c5715c88097ec4f79fbcfb
Author: Linuxfor223 <lkoppejan@bluewin.ch>
Date:   Fri Sep 17 07:04:00 2021 -0700

    removed all unusefull files/folders

commit 31d66fdc03afca03863f57d9af59fd8315b48bd2
Author: Linuxfor223 <lkoppejan@bluewin.ch>
Date:   Fri Sep 17 06:58:06 2021 -0700

    removed unnessascary folder

commit 4567b5e356575373fc3dc89cf9795e936e3dac0c
Author: Linuxfor223 <lkoppejan@bluewin.ch>
Date:   Fri Sep 17 06:50:50 2021 -0700

    updated README.md

commit 45cf484d1a63285d259d5a31053b2d00f26a21f3
Author: Linuxfor223 <lkoppejan@bluewin.ch>
Date:   Fri Sep 17 06:40:18 2021 -0700

    finished user Authorisation tasks

commit af8957aed965e22a9d1f87f7a2c4caa96286be3e
Author: Linuxfor223 <lkoppejan@bluewin.ch>
Date:   Fri Sep 17 05:41:08 2021 -0700

    finished User logIn

commit 038a2359858f9def952e973a8c7f6f2790a7f6bc
Author: Linuxfor223 <lkoppejan@bluewin.ch>
Date:   Fri Sep 17 05:08:14 2021 -0700

    Token changes

commit 772e67cabb50e2a20848c577227330a64a6ddcd9
Author: Linuxfor223 <lkoppejan@bluewin.ch>
Date:   Fri Sep 17 04:41:19 2021 -0700

    splitted up js and HTML, working on login and registation

commit 16d8f30098a4eb6ea32ab6924216ab7d64762235
Author: Linuxfor223 <lkoppejan@bluewin.ch>
Date:   Thu Sep 16 23:27:13 2021 -0700

    added .gitignore

commit 0856cfaf31dd6b2025cb3e6852783d0c3453ed16
Author: Linuxfor223 <lkoppejan@bluewin.ch>
Date:   Thu Sep 16 07:39:28 2021 -0700

    statred implementing Frontend

commit 9082400e94dcba69ee024526fdf6c9d0948b56c6
Author: Linuxfor223 <lkoppejan@bluewin.ch>
Date:   Thu Sep 16 06:47:27 2021 -0700

    Entity Classes corrections

commit d5f31057a92be72fd5b2ac7f94ae7d74e42a96cf
Author: Linuxfor223 <lkoppejan@bluewin.ch>
Date:   Thu Sep 16 04:01:20 2021 -0700

    added Backend

commit f420a75cd022d911e3c746527df1578d6a5e1c6c
Author: Linuxfor223 <lkoppejan@bluewin.ch>
Date:   Wed Sep 15 23:46:57 2021 -0700

    initial commit v2

commit e653c6fa40a18c8adc0278c3287887a3dd70086a
Author: Linden Koppejan <lkoppejan@bluewin.ch>
Date:   Thu Sep 16 06:34:31 2021 +0000

    Initial commit
